500_83_get_mixed_effect_model_results.R
…
# store all tables in list and save input filenames alongside - skipping "X1" 
#  in case previous tables have column numbers, which they should not have anymore.
model_input_data <- suppressWarnings(lapply(model_input_files, 
  function(listed_file)  read_csv(listed_file, col_types = cols('X1' = col_skip()))))
names(model_input_data) <- model_input_files

# After phone call 6.2.2020 keep only one dataset in list.
# After email call 27.2.2020 keep only one dataset in list. Same as previous.

# subset datasets
model_input_data <- list(model_input_data[[2]], model_input_data[[4]])
print(model_input_data)

[[1]]
# A tibble: 69 x 21
   PORT  DEST  RESP_UNIFRAC PRED_ENV PRED_TRIPS ECO_PORT ECO_DEST ECO_DIFF VOY_FREQ B_FON_NOECO B_HON_NOECO B_FON_SMECO B_HON_SMECO B_FON_NOECO_NOE
   <chr> <chr>        <dbl>    <dbl>      <dbl>    <dbl>    <dbl> <lgl>       <dbl>       <dbl>       <dbl>       <dbl>       <dbl>            <dbl>
 1 AD    BT           0.836     1.45         10       26       11 TRUE           NA    NA         NA           NA          NA               NA      
 2 AD    HT           0.924     1.96          6       26       11 TRUE           NA    NA         NA           NA          NA               NA      
 3 AD    WL           0.880     2.15          2       26       11 TRUE           NA    NA         NA           NA          NA               NA      
 4 AW    WL           0.700     1.06         15        3       11 TRUE            1     0.         1.14e- 4     0.          3.39e-3          0.00742
 5 BT    AW           0.636     1.56        189       11        3 TRUE          163     6.06e-1    5.55e- 3     6.14e-1     1.56e-1          1.00   
 6 BT    GH           0.695     1.50         20       11        3 TRUE            5     7.58e-2    6.70e- 4     7.65e-2     1.99e-2          0.634  
 7 BT    HN           0.818     2.92         11       11       17 TRUE           NA    NA         NA           NA          NA               NA      
 8 BT    HT           0.794     1.52        287       11       11 FALSE         304     4.83e-2    1.01e- 4     4.92e-2     2.44e-3          1.00   
 9 BT    LB           0.785     2.14         26       11        7 TRUE            1     8.92e-4    1.02e- 5     9.12e-4     3.02e-4          0.110  
10 BT    MI           0.756     3.16         75       11       11 FALSE          67     6.07e-8    9.45e-11     6.20e-8     2.39e-9          0.997  
#  with 59 more rows, and 7 more variables: B_HON_NOECO_NOENV <dbl>, F_FON_NOECO <dbl>, F_HON_NOECO <dbl>, F_FON_SMECO <dbl>, F_HON_SMECO <dbl>,
#   F_FON_NOECO_NOENV <dbl>, F_HON_NOECO_NOENV <dbl>

[[2]]
# A tibble: 69 x 21
   PORT  DEST  RESP_UNIFRAC PRED_ENV PRED_TRIPS ECO_PORT ECO_DEST ECO_DIFF VOY_FREQ B_FON_NOECO B_HON_NOECO B_FON_SMECO B_HON_SMECO B_FON_NOECO_NOE
   <chr> <chr>        <dbl>    <dbl>      <dbl>    <dbl>    <dbl> <lgl>       <dbl>       <dbl>       <dbl>       <dbl>       <dbl>            <dbl>
 1 AD    BT           0.815     1.45         10       26       11 TRUE           NA    NA         NA           NA          NA               NA      
 2 AD    HT           0.925     1.96          6       26       11 TRUE           NA    NA         NA           NA          NA               NA      
 3 AD    WL           0.881     2.15          2       26       11 TRUE           NA    NA         NA           NA          NA               NA      
 4 AW    WL           0.702     1.06         15        3       11 TRUE            1     0.         1.14e- 4     0.          3.39e-3          0.00742
 5 BT    AW           0.634     1.56        189       11        3 TRUE          163     6.06e-1    5.55e- 3     6.14e-1     1.56e-1          1.00   
 6 BT    GH           0.713     1.50         20       11        3 TRUE            5     7.58e-2    6.70e- 4     7.65e-2     1.99e-2          0.634  
 7 BT    HN           0.819     2.92         11       11       17 TRUE           NA    NA         NA           NA          NA               NA      
 8 BT    HT           0.800     1.52        287       11       11 FALSE         304     4.83e-2    1.01e- 4     4.92e-2     2.44e-3          1.00   
 9 BT    LB           0.782     2.14         26       11        7 TRUE            1     8.92e-4    1.02e- 5     9.12e-4     3.02e-4          0.110  
10 BT    MI           0.760     3.16         75       11       11 FALSE          67     6.07e-8    9.45e-11     6.20e-8     2.39e-9          0.997  
#  with 59 more rows, and 7 more variables: B_HON_NOECO_NOENV <dbl>, F_FON_NOECO <dbl>, F_HON_NOECO <dbl>, F_FON_SMECO <dbl>, F_HON_SMECO <dbl>,
#   F_FON_NOECO_NOENV <dbl>, F_HON_NOECO_NOENV <dbl>
…
